…
  - **In practice you will be reading from a location on your local
    machine.**
    
      - e.g. `read_tsv("user/downloads/pulse.txt")`

<!-- end list -->

``` r
pulseData <- read_tsv("https://raw.githubusercontent.com/aboland/TutoR/master/Tutorial_03_Transformation/pulse.txt")
pulseData
```

    ## # A tibble: 92 x 3
    ##    RestingPulse Smokes Weight
    ##    <chr>        <chr>   <dbl>
    ##  1 Low          No        140
    ##  2 Low          <NA>      145
    ##  3 Low          Yes       160
    ##  4 Low          Yes       190
    ##  5 Low          No        155
    ##  6 Low          No        165
    ##  7 <NA>         No        150
    ##  8 Low          No        190
    ##  9 Low          No        195
    ## 10 Low          No        138
    ## # … with 82 more rows

``` r
fastFoodData <- read_csv("https://raw.githubusercontent.com/aboland/TutoR/master/Tutorial_03_Transformation/fastfood_calories.csv", col_names = TRUE)

fastFoodData
```

    ## # A tibble: 515 x 18
    ##       X1 restaurant item  calories cal_fat total_fat sat_fat trans_fat
    ##    <dbl> <chr>      <chr>    <dbl>   <dbl>     <dbl>   <dbl>     <dbl>
    ##  1     1 Mcdonalds  Arti…      380      60         7       2       0  
    ##  2     2 Mcdonalds  Sing…      840     410        45      17       1.5
    ##  3     3 Mcdonalds  Doub…     1130     600        67      27       3  
    ##  4     4 Mcdonalds  Gril…      750     280        31      10       0.5
    ##  5     5 Mcdonalds  Cris…      920     410        45      12       0.5
    ##  6     6 Mcdonalds  Big …      540     250        28      10       1  
    ##  7     7 Mcdonalds  Chee…      300     100        12       5       0.5
    ##  8     8 Mcdonalds  Clas…      510     210        24       4       0  
    ##  9     9 Mcdonalds  Doub…      430     190        21      11       1  
    ## 10    10 Mcdonalds  Doub…      770     400        45      21       2.5
    ## # … with 505 more rows, and 10 more variables: cholesterol <dbl>,
    ## #   sodium <dbl>, total_carb <dbl>, fiber <dbl>, sugar <dbl>,
    ## #   protein <dbl>, vit_a <dbl>, vit_c <dbl>, calcium <dbl>, salad <chr>
…
<br>

  - An alternative method of removing missing data is to use the
    `na.omit()` function:
      - Note how the use of `na.omit` differs to `complete.cases`
      - It is a standalone function which returns a dataset

<!-- end list -->

``` r
cleanPulseData <- na.omit(pulseData)
cleanPulseData
```

    ## # A tibble: 85 x 3
    ##    RestingPulse Smokes Weight
    ##    <chr>        <chr>   <dbl>
    ##  1 Low          No        140
    ##  2 Low          Yes       160
    ##  3 Low          Yes       190
    ##  4 Low          No        155
    ##  5 Low          No        165
    ##  6 Low          No        190
    ##  7 Low          No        195
    ##  8 Low          No        138
    ##  9 High         Yes       160
    ## 10 Low          No        155
    ## # … with 75 more rows
…
<br>

### `arrange()`

  - The `arrange()` function sorts and orders the contents of a
    dataframe.

<!-- end list -->

``` r
weightOrder <- arrange(cleanPulseData, Weight)
weightOrder
```

    ## # A tibble: 85 x 3
    ##    RestingPulse Smokes Weight
    ##    <chr>        <chr>   <dbl>
    ##  1 High         No         95
    ##  2 Low          No        102
    ##  3 Low          Yes       108
    ##  4 Low          No        108
    ##  5 Low          No        110
    ##  6 Low          Yes       112
    ##  7 Low          No        115
    ##  8 Low          No        115
    ##  9 High         No        116
    ## 10 High         No        116
    ## # … with 75 more rows

  - The data frame is arranged in ascending order by default. However,
    you can sort the data by descending order using the following code:

<!-- end list -->

``` r
weightOrderDesc <- arrange(cleanPulseData, desc(Weight))
weightOrderDesc
```

    ## # A tibble: 85 x 3
    ##    RestingPulse Smokes Weight
    ##    <chr>        <chr>   <dbl>
    ##  1 Low          No        215
    ##  2 Low          No        195
    ##  3 Low          Yes       190
    ##  4 Low          No        190
    ##  5 Low          No        190
    ##  6 Low          Yes       190
    ##  7 Low          Yes       185
    ##  8 Low          Yes       180
    ##  9 High         Yes       180
    ## 10 Low          No        180
    ## # … with 75 more rows

  - It is also possible to include more than one column name in the
    `arrange()` function.

<!-- end list -->

``` r
smokesAndPulseOrder <- arrange(cleanPulseData, Smokes, RestingPulse)
smokesAndPulseOrder
```

    ## # A tibble: 85 x 3
    ##    RestingPulse Smokes Weight
    ##    <chr>        <chr>   <dbl>
    ##  1 High         No        116
    ##  2 High         No        155
    ##  3 High         No        145
    ##  4 High         No        136
    ##  5 High         No        130
    ##  6 High         No        118
    ##  7 High         No        116
    ##  8 High         No         95
    ##  9 High         No        150
    ## 10 Low          No        140
    ## # … with 75 more rows
…
#### Exercise 5

**Use the `select()` function to create a data frame called
`fastFoodNutrition` which contains the variables `restaurant`, `item`,
`calories`, `total_fat`, `sugar` and `protein`.**

[Exercise 5 Solution](#exercise-5-solution)

    ## # A tibble: 515 x 6
    ##    restaurant item                         calories total_fat sugar protein
    ##    <chr>      <chr>                           <dbl>     <dbl> <dbl>   <dbl>
    ##  1 Mcdonalds  Artisan Grilled Chicken San…      380         7    11      37
    ##  2 Mcdonalds  Single Bacon Smokehouse Bur…      840        45    18      46
    ##  3 Mcdonalds  Double Bacon Smokehouse Bur…     1130        67    18      70
    ##  4 Mcdonalds  Grilled Bacon Smokehouse Ch…      750        31    18      55
    ##  5 Mcdonalds  Crispy Bacon Smokehouse Chi…      920        45    18      46
    ##  6 Mcdonalds  Big Mac                           540        28     9      25
    ##  7 Mcdonalds  Cheeseburger                      300        12     7      15
    ##  8 Mcdonalds  Classic Chicken Sandwich          510        24     6      25
    ##  9 Mcdonalds  Double Cheeseburger               430        21     7      25
    ## 10 Mcdonalds  Double Quarter Pounder® wit…      770        45    10      51
    ## # … with 505 more rows

<br><br>

## More Transformations

    ## The `playerData` dataset can be read in as follows.

``` r
playerData <- read_csv("https://raw.githubusercontent.com/aboland/TutoR/master/Tutorial_03_Transformation/player_data.csv")
playerData
```

    ## # A tibble: 4,550 x 8
    ##    name    year_start year_end position height weight birth_date  college  
    ##    <chr>        <dbl>    <dbl> <chr>    <chr>   <dbl> <chr>       <chr>    
    ##  1 Alaa A…       1991     1995 F-C      6-10      240 June 24, 1… Duke Uni…
    ##  2 Zaid A…       1969     1978 C-F      6-9       235 April 7, 1… Iowa Sta…
    ##  3 Kareem…       1970     1989 C        7-2       225 April 16, … Universi…
    ##  4 Mahmou…       1991     2001 G        6-1       162 March 9, 1… Louisian…
    ##  5 Tariq …       1998     2003 F        6-6       223 November 3… San Jose…
    ##  6 Sharee…       1997     2008 F        6-9       225 December 1… Universi…
    ##  7 Tom Ab…       1977     1981 F        6-7       220 May 6, 1954 Indiana …
    ##  8 Forest…       1957     1957 G        6-3       180 July 27, 1… Western …
    ##  9 John A…       1947     1948 F        6-3       195 February 9… Salem In…
    ## 10 Alex A…       2017     2018 G-F      6-6       190 August 1, … <NA>     
    ## # … with 4,540 more rows
…
<!-- end list -->

``` r
playerData <- mutate(playerData, years_active = year_end - year_start)

playerData_select <- select(playerData, name, years_active)
playerData_select
```

    ## # A tibble: 4,550 x 2
    ##    name                years_active
    ##    <chr>                      <dbl>
    ##  1 Alaa Abdelnaby                 4
    ##  2 Zaid Abdul-Aziz                9
    ##  3 Kareem Abdul-Jabbar           19
    ##  4 Mahmoud Abdul-Rauf            10
    ##  5 Tariq Abdul-Wahad              5
    ##  6 Shareef Abdur-Rahim           11
    ##  7 Tom Abernethy                  4
    ##  8 Forest Able                    0
    ##  9 John Abramovic                 1
    ## 10 Alex Abrines                   1
    ## # … with 4,540 more rows
…
### `transmute()`

  - If you only wish to keep the new variables you have created, you can
    do so using the `transmute()` function as shown
below:

<!-- end list -->

``` r
playerData_select <- transmute(playerData, years_active = year_end - year_start)
playerData_select
```

    ## # A tibble: 4,550 x 1
    ##    years_active
    ##           <dbl>
    ##  1            4
    ##  2            9
    ##  3           19
    ##  4           10
    ##  5            5
    ##  6           11
    ##  7            4
    ##  8            0
    ##  9            1
    ## 10            1
    ## # … with 4,540 more rows
…
### NYC Flights

  - The [nycflights13](https://github.com/hadley/nycflights13) data
    contains information about all flights that departed from NYC
    (e.g. EWR, JFK and LGA) in 2013 (336,776 flights in total).

<!-- end list -->

``` r
library(nycflights13)
flights
```

    ## # A tibble: 336,776 x 19
    ##     year month   day dep_time sched_dep_time dep_delay arr_time
    ##    <int> <int> <int>    <int>          <int>     <dbl>    <int>
    ##  1  2013     1     1      517            515         2      830
    ##  2  2013     1     1      533            529         4      850
    ##  3  2013     1     1      542            540         2      923
    ##  4  2013     1     1      544            545        -1     1004
    ##  5  2013     1     1      554            600        -6      812
    ##  6  2013     1     1      554            558        -4      740
    ##  7  2013     1     1      555            600        -5      913
    ##  8  2013     1     1      557            600        -3      709
    ##  9  2013     1     1      557            600        -3      838
    ## 10  2013     1     1      558            600        -2      753
    ## # … with 336,766 more rows, and 12 more variables: sched_arr_time <int>,
    ## #   arr_delay <dbl>, carrier <chr>, flight <int>, tailnum <chr>,
    ## #   origin <chr>, dest <chr>, air_time <dbl>, distance <dbl>, hour <dbl>,
    ## #   minute <dbl>, time_hour <dttm>
…
  - Try running the following code which groups the players in the
    dataset by their college and then finds the average number of years
    players from different colleges are active.

<!-- end list -->

``` r
byCollege <- group_by(playerData, college)
summarise(byCollege, averageYearsActive = mean(years_active))
```

    ## # A tibble: 474 x 2
    ##    college                        averageYearsActive
    ##    <chr>                                       <dbl>
    ##  1 Acadia University                            0   
    ##  2 Alabama - Huntsville                         0   
    ##  3 Alabama A&M University                       0   
    ##  4 Alabama State University                     1   
    ##  5 Albany State University                      8.6 
    ##  6 Alcorn State University                      6.25
    ##  7 Alliance College                             0   
    ##  8 American International College              10   
    ##  9 American University                         14   
    ## 10 Appalachian State University                 5   
    ## # … with 464 more rows
…
<br>

### `ungroup()`

  - If you wish to remove a grouping, you can do so simply by using the
    `ungroup()` function as follows:

<!-- end list -->

``` r
byCollege <- group_by(playerData, college)
ungroup(byCollege)
```

    ## # A tibble: 4,550 x 9
    ##    name  year_start year_end position height weight birth_date college
    ##    <chr>      <dbl>    <dbl> <chr>    <chr>   <dbl> <chr>      <chr>  
    ##  1 Alaa…       1991     1995 F-C      6-10      240 June 24, … Duke U…
    ##  2 Zaid…       1969     1978 C-F      6-9       235 April 7, … Iowa S…
    ##  3 Kare…       1970     1989 C        7-2       225 April 16,… Univer…
    ##  4 Mahm…       1991     2001 G        6-1       162 March 9, … Louisi…
    ##  5 Tari…       1998     2003 F        6-6       223 November … San Jo…
    ##  6 Shar…       1997     2008 F        6-9       225 December … Univer…
    ##  7 Tom …       1977     1981 F        6-7       220 May 6, 19… Indian…
    ##  8 Fore…       1957     1957 G        6-3       180 July 27, … Wester…
    ##  9 John…       1947     1948 F        6-3       195 February … Salem …
    ## 10 Alex…       2017     2018 G-F      6-6       190 August 1,… <NA>   
    ## # … with 4,540 more rows, and 1 more variable: years_active <dbl>
…
[Back to Exercise 1](#exercise-1)

### Exercise 2 Solution

``` r
lowRateNonSmokers <- filter(cleanPulseData, 
                            Smokes == "No", 
                            Weight < 180)
lowRateNonSmokers
```

    ## # A tibble: 53 x 3
    ##    RestingPulse Smokes Weight
    ##    <chr>        <chr>   <dbl>
    ##  1 Low          No        140
    ##  2 Low          No        155
    ##  3 Low          No        165
    ##  4 Low          No        138
    ##  5 Low          No        155
    ##  6 Low          No        145
    ##  7 Low          No        170
    ##  8 Low          No        175
    ##  9 Low          No        135
    ## 10 Low          No        170
    ## # … with 43 more rows
…
### Exercise 5 Solution

``` r
fastFoodNutrition <- select(fastFoodData, 
                            restaurant, 
                            item, 
                            calories, 
                            total_fat, 
                            sugar, 
                            protein)
fastFoodNutrition
```

    ## # A tibble: 515 x 6
    ##    restaurant item                         calories total_fat sugar protein
    ##    <chr>      <chr>                           <dbl>     <dbl> <dbl>   <dbl>
    ##  1 Mcdonalds  Artisan Grilled Chicken San…      380         7    11      37
    ##  2 Mcdonalds  Single Bacon Smokehouse Bur…      840        45    18      46
    ##  3 Mcdonalds  Double Bacon Smokehouse Bur…     1130        67    18      70
    ##  4 Mcdonalds  Grilled Bacon Smokehouse Ch…      750        31    18      55
    ##  5 Mcdonalds  Crispy Bacon Smokehouse Chi…      920        45    18      46
    ##  6 Mcdonalds  Big Mac                           540        28     9      25
    ##  7 Mcdonalds  Cheeseburger                      300        12     7      15
    ##  8 Mcdonalds  Classic Chicken Sandwich          510        24     6      25
    ##  9 Mcdonalds  Double Cheeseburger               430        21     7      25
    ## 10 Mcdonalds  Double Quarter Pounder® wit…      770        45    10      51
    ## # … with 505 more rows

[Back to Exercise 5](#exercise-5)

### Exercise 6 Solution

``` r
flights <- mutate(flights, kmPerMinute = distance/air_time)
flights
```

    ## # A tibble: 336,776 x 20
    ##     year month   day dep_time sched_dep_time dep_delay arr_time
    ##    <int> <int> <int>    <int>          <int>     <dbl>    <int>
    ##  1  2013     1     1      517            515         2      830
    ##  2  2013     1     1      533            529         4      850
    ##  3  2013     1     1      542            540         2      923
    ##  4  2013     1     1      544            545        -1     1004
    ##  5  2013     1     1      554            600        -6      812
    ##  6  2013     1     1      554            558        -4      740
    ##  7  2013     1     1      555            600        -5      913
    ##  8  2013     1     1      557            600        -3      709
    ##  9  2013     1     1      557            600        -3      838
    ## 10  2013     1     1      558            600        -2      753
    ## # … with 336,766 more rows, and 13 more variables: sched_arr_time <int>,
    ## #   arr_delay <dbl>, carrier <chr>, flight <int>, tailnum <chr>,
    ## #   origin <chr>, dest <chr>, air_time <dbl>, distance <dbl>, hour <dbl>,
    ## #   minute <dbl>, time_hour <dttm>, kmPerMinute <dbl>

[Back to Exercise 6](#exercise-6)

### Exercise 7 Solution

``` r
byStartYear <- group_by(playerData, year_start)
summarise(byStartYear, maxYearEnd = max(year_end))
```

    ## # A tibble: 72 x 2
    ##    year_start maxYearEnd
    ##         <dbl>      <dbl>
    ##  1       1947       1956
    ##  2       1948       1962
    ##  3       1949       1962
    ##  4       1950       1964
    ##  5       1951       1970
    ##  6       1952       1960
    ##  7       1953       1964
    ##  8       1954       1964
    ##  9       1955       1968
    ## 10       1956       1966
    ## # … with 62 more rows

[Back to Exercise 7](#exercise-7)

### Exercise 8 Solution

``` r
byDestAndCarrier <- group_by(flights, dest, carrier)
summarise(byDestAndCarrier, averageDistance = mean(distance))
```

    ## # A tibble: 314 x 3
    ## # Groups:   dest [105]
    ##    dest  carrier averageDistance
    ##    <chr> <chr>             <dbl>
    ##  1 ABQ   B6                1826 
    ##  2 ACK   B6                 199 
    ##  3 ALB   EV                 143 
    ##  4 ANC   UA                3370 
    ##  5 ATL   9E                 759.
    ##  6 ATL   DL                 757.
    ##  7 ATL   EV                 746.
    ##  8 ATL   FL                 762 
    ##  9 ATL   MQ                 762 
    ## 10 ATL   UA                 746 
    ## # … with 304 more rows

[Back to Exercise 8](#exercise-8)

### Exercise 9 Solution

``` r
flights %>% 
  group_by(dest, carrier) %>%
  summarise(averageDistance = mean(distance))
```

    ## # A tibble: 314 x 3
    ## # Groups:   dest [105]
    ##    dest  carrier averageDistance
    ##    <chr> <chr>             <dbl>
    ##  1 ABQ   B6                1826 
    ##  2 ACK   B6                 199 
    ##  3 ALB   EV                 143 
    ##  4 ANC   UA                3370 
    ##  5 ATL   9E                 759.
    ##  6 ATL   DL                 757.
    ##  7 ATL   EV                 746.
    ##  8 ATL   FL                 762 
    ##  9 ATL   MQ                 762 
    ## 10 ATL   UA                 746 
    ## # … with 304 more rows
…
