…
<!-- end list -->

``` r
flights
```

    ## # A tibble: 336,776 x 19
    ##     year month   day dep_time sched_dep_time dep_delay arr_time
    ##    <int> <int> <int>    <int>          <int>     <dbl>    <int>
    ##  1  2013     1     1      517            515         2      830
    ##  2  2013     1     1      533            529         4      850
    ##  3  2013     1     1      542            540         2      923
    ##  4  2013     1     1      544            545        -1     1004
    ##  5  2013     1     1      554            600        -6      812
    ##  6  2013     1     1      554            558        -4      740
    ##  7  2013     1     1      555            600        -5      913
    ##  8  2013     1     1      557            600        -3      709
    ##  9  2013     1     1      557            600        -3      838
    ## 10  2013     1     1      558            600        -2      753
    ## # … with 336,766 more rows, and 12 more variables: sched_arr_time <int>,
    ## #   arr_delay <dbl>, carrier <chr>, flight <int>, tailnum <chr>,
    ## #   origin <chr>, dest <chr>, air_time <dbl>, distance <dbl>, hour <dbl>,
    ## #   minute <dbl>, time_hour <dttm>

``` r
planes
```

    ## # A tibble: 3,322 x 9
    ##    tailnum  year type       manufacturer  model  engines seats speed engine
    ##    <chr>   <int> <chr>      <chr>         <chr>    <int> <int> <int> <chr> 
    ##  1 N10156   2004 Fixed win… EMBRAER       EMB-1…       2    55    NA Turbo…
    ##  2 N102UW   1998 Fixed win… AIRBUS INDUS… A320-…       2   182    NA Turbo…
    ##  3 N103US   1999 Fixed win… AIRBUS INDUS… A320-…       2   182    NA Turbo…
    ##  4 N104UW   1999 Fixed win… AIRBUS INDUS… A320-…       2   182    NA Turbo…
    ##  5 N10575   2002 Fixed win… EMBRAER       EMB-1…       2    55    NA Turbo…
    ##  6 N105UW   1999 Fixed win… AIRBUS INDUS… A320-…       2   182    NA Turbo…
    ##  7 N107US   1999 Fixed win… AIRBUS INDUS… A320-…       2   182    NA Turbo…
    ##  8 N108UW   1999 Fixed win… AIRBUS INDUS… A320-…       2   182    NA Turbo…
    ##  9 N109UW   1999 Fixed win… AIRBUS INDUS… A320-…       2   182    NA Turbo…
    ## 10 N110UW   1999 Fixed win… AIRBUS INDUS… A320-…       2   182    NA Turbo…
    ## # … with 3,312 more rows
…
