…
  - It contains observations collected by the US Environmental
    Protection Agency on different car models.

  - Consult the helpfile which can be found
    <a href="https://ggplot2.tidyverse.org/reference/mpg.html" rel="noopener noreferrer" target="_blank">here</a>
    to find more information on the data, including a description of the
    variables.

  - Before we start to graph this dataset it is important to take a look
    at its contents.

<!-- end list -->

    ## # A tibble: 234 x 11
    ##    manufacturer model displ  year   cyl trans drv     cty   hwy fl    class
    ##    <chr>        <chr> <dbl> <int> <int> <chr> <chr> <int> <int> <chr> <chr>
    ##  1 audi         a4      1.8  1999     4 auto… f        18    29 p     comp…
    ##  2 audi         a4      1.8  1999     4 manu… f        21    29 p     comp…
    ##  3 audi         a4      2    2008     4 manu… f        20    31 p     comp…
    ##  4 audi         a4      2    2008     4 auto… f        21    30 p     comp…
    ##  5 audi         a4      2.8  1999     6 auto… f        16    26 p     comp…
    ##  6 audi         a4      2.8  1999     6 manu… f        18    26 p     comp…
    ##  7 audi         a4      3.1  2008     6 auto… f        18    27 p     comp…
    ##  8 audi         a4 q…   1.8  1999     4 manu… 4        18    26 p     comp…
    ##  9 audi         a4 q…   1.8  1999     4 auto… 4        16    25 p     comp…
    ## 10 audi         a4 q…   2    2008     4 manu… 4        20    28 p     comp…
    ## # … with 224 more rows
…
## Barplots

### Diamonds data

  - `Diamonds` is a dataset containing the prices and other attributes
    of almost 54,000 diamonds.
  - Consult the help file
    [here](https://ggplot2.tidyverse.org/reference/diamonds.html) for an
    explanation of the variables contained in the dataset.

<!-- end list -->

    ## # A tibble: 53,940 x 10
    ##    carat cut       color clarity depth table price     x     y     z
    ##    <dbl> <ord>     <ord> <ord>   <dbl> <dbl> <int> <dbl> <dbl> <dbl>
    ##  1 0.23  Ideal     E     SI2      61.5    55   326  3.95  3.98  2.43
    ##  2 0.21  Premium   E     SI1      59.8    61   326  3.89  3.84  2.31
    ##  3 0.23  Good      E     VS1      56.9    65   327  4.05  4.07  2.31
    ##  4 0.290 Premium   I     VS2      62.4    58   334  4.2   4.23  2.63
    ##  5 0.31  Good      J     SI2      63.3    58   335  4.34  4.35  2.75
    ##  6 0.24  Very Good J     VVS2     62.8    57   336  3.94  3.96  2.48
    ##  7 0.24  Very Good I     VVS1     62.3    57   336  3.95  3.98  2.47
    ##  8 0.26  Very Good H     SI1      61.9    55   337  4.07  4.11  2.53
    ##  9 0.22  Fair      E     VS2      65.1    61   337  3.87  3.78  2.49
    ## 10 0.23  Very Good H     VS1      59.4    61   338  4     4.05  2.39
    ## # … with 53,930 more rows
…
  - This section uses the `maps` and `scales` packages.
  - `maps`
      - This packages contains maps which can be used to visualise
        geographical data.
  - `scales`
      - This package contains functions to improve axis labels and
        legends.
  - The code below loads some United States economic data, as well as
    map data for the US.  
  - We will cover some of the commands used below in later tutorials.

<!-- end list -->

    ## # A tibble: 86,284 x 41
    ##    CensusId State County TotalPop   Men Women Hispanic White Black Native
    ##       <dbl> <chr> <chr>     <dbl> <dbl> <dbl>    <dbl> <dbl> <dbl>  <dbl>
    ##  1     1001 alab… autau…    55221 26745 28476      2.6  75.8  18.5    0.4
    ##  2     1001 alab… autau…    55221 26745 28476      2.6  75.8  18.5    0.4
    ##  3     1001 alab… autau…    55221 26745 28476      2.6  75.8  18.5    0.4
    ##  4     1001 alab… autau…    55221 26745 28476      2.6  75.8  18.5    0.4
    ##  5     1001 alab… autau…    55221 26745 28476      2.6  75.8  18.5    0.4
    ##  6     1001 alab… autau…    55221 26745 28476      2.6  75.8  18.5    0.4
    ##  7     1001 alab… autau…    55221 26745 28476      2.6  75.8  18.5    0.4
    ##  8     1001 alab… autau…    55221 26745 28476      2.6  75.8  18.5    0.4
    ##  9     1001 alab… autau…    55221 26745 28476      2.6  75.8  18.5    0.4
    ## 10     1001 alab… autau…    55221 26745 28476      2.6  75.8  18.5    0.4
    ## # … with 86,274 more rows, and 31 more variables: Asian <dbl>,
    ## #   Pacific <dbl>, Citizen <dbl>, Income <dbl>, IncomeErr <dbl>,
    ## #   IncomePerCap <dbl>, IncomePerCapErr <dbl>, Poverty <dbl>,
    ## #   ChildPoverty <dbl>, Professional <dbl>, Service <dbl>, Office <dbl>,
    ## #   Construction <dbl>, Production <dbl>, Drive <dbl>, Carpool <dbl>,
    ## #   Transit <dbl>, Walk <dbl>, OtherTransp <dbl>, WorkAtHome <dbl>,
    ## #   MeanCommute <dbl>, Employed <dbl>, PrivateWork <dbl>,
    ## #   PublicWork <dbl>, SelfEmployed <dbl>, FamilyWork <dbl>,
    ## #   Unemployment <dbl>, long <dbl>, lat <dbl>, group <dbl>, order <int>
…
### Animate `gganimate`

  - We will now look at the `gganimtte` package.

  - This can be used to create animations of data.

  - The data used here is [US Voter
    Data](https://github.com/rfordatascience/tidytuesday/tree/master/data/2018/2018-10-09),
    click on the link to learn more about the data.

<!-- end list -->

    ## # A tibble: 918 x 7
    ##       X1  year icpsr_state_code alphanumeric_st… state  votes
    ##    <dbl> <dbl>            <dbl>            <dbl> <chr>  <dbl>
    ##  1     2  2014               41                1 Alab… 1.19e6
    ##  2     3  2014               81                2 Alas… 2.85e5
    ##  3     4  2014               61                3 Ariz… 1.54e6
    ##  4     5  2014               42                4 Arka… 8.53e5
    ##  5     6  2014               71                5 Cali… 7.51e6
    ##  6     7  2014               62                6 Colo… 2.08e6
    ##  7     8  2014                1                7 Conn… 1.10e6
    ##  8     9  2014               11                8 Dela… 2.38e5
    ##  9    10  2014               55                9 Dist… 1.77e5
    ## 10    11  2014               43               10 Flor… 6.03e6
    ## # … with 908 more rows, and 1 more variable: eligible_voters <dbl>
…
<img src="Tutorial_02_files/figure-gfm/animate-1.gif" style="display: block; margin: auto;" />

### Map Animation

  - We can combine the `maps` and `gganimate` packages.

  - The final animation looks at [US Wind Turbine
    Data](https://github.com/rfordatascience/tidytuesday/tree/master/data/2018/2018-11-06)

<!-- end list -->

    ## # A tibble: 58,123 x 24
    ##    case_id faa_ors faa_asn usgs_pr_id t_state t_county t_fips p_name p_year
    ##      <dbl> <chr>   <chr>        <dbl> <chr>   <chr>    <chr>  <chr>   <dbl>
    ##  1 3073429 <NA>    <NA>          4960 CA      Kern Co… 06029  251 W…   1987
    ##  2 3071522 <NA>    <NA>          4997 CA      Kern Co… 06029  251 W…   1987
    ##  3 3073425 <NA>    <NA>          4957 CA      Kern Co… 06029  251 W…   1987
    ##  4 3071569 <NA>    <NA>          5023 CA      Kern Co… 06029  251 W…   1987
    ##  5 3005252 <NA>    <NA>          5768 CA      Kern Co… 06029  251 W…   1987
    ##  6 3003862 <NA>    <NA>          5836 CA      Kern Co… 06029  251 W…   1987
    ##  7 3073370 <NA>    <NA>          4948 CA      Kern Co… 06029  251 W…   1987
    ##  8 3010101 <NA>    <NA>          5828 CA      Kern Co… 06029  251 W…   1987
    ##  9 3073324 <NA>    <NA>          4965 CA      Kern Co… 06029  251 W…   1987
    ## 10 3072659 <NA>    <NA>          5044 CA      Kern Co… 06029  251 W…   1987
    ## # … with 58,113 more rows, and 15 more variables: p_tnum <dbl>,
    ## #   p_cap <dbl>, t_manu <chr>, t_model <chr>, t_cap <dbl>, t_hh <dbl>,
    ## #   t_rd <dbl>, t_rsa <dbl>, t_ttlh <dbl>, t_conf_atr <dbl>,
    ## #   t_conf_loc <dbl>, t_img_date <chr>, t_img_srce <chr>, xlong <dbl>,
    ## #   ylat <dbl>
…
